boards/kc705/test/test.vcd
$date
	Mon Jul 28 10:51:53 2014
$end
$version
	Icarus Verilog
$end
$timescale
	1ps
$end
$scope module tb_system $end
$var wire 24 ! phy_cur [23:0] $end
$var wire 24 " tlp_cur [23:0] $end
$var wire 8 # xgmii_0_txc [7:0] $end
$var wire 64 $ xgmii_0_txd [63:0] $end
$var wire 8 % xgmii_1_txc [7:0] $end
$var wire 64 & xgmii_1_txd [63:0] $end
$var reg 12 ' phy_counter [11:0] $end
$var reg 1 ( sys_clk $end
$var reg 1 ) sys_rst $end
$var reg 12 * tlp_counter [11:0] $end
$var reg 8 + xgmii_0_rxc [7:0] $end
$var reg 64 , xgmii_0_rxd [63:0] $end
$var reg 8 - xgmii_1_rxc [7:0] $end
$var reg 64 . xgmii_1_rxd [63:0] $end
$scope module measure_inst $end
$var wire 32 / crc32_out [31:0] $end
$var wire 32 0 crc32_outrev [31:0] $end
$var wire 32 1 crc64_out [31:0] $end
$var wire 32 2 crc64_outrev [31:0] $end
$var wire 1 3 crc_data_en $end
$var wire 16 4 frame_crc1_count [15:0] $end
$var wire 16 5 frame_crc2_count [15:0] $end
$var wire 16 6 frame_crc3_count [15:0] $end
$var wire 16 7 frame_crc4_count [15:0] $end
$var wire 16 8 frame_end_count [15:0] $end
$var wire 32 9 ipv4_dstip [31:0] $end
$var wire 32 : magic_code [31:0] $end
$var wire 1 ; pci_clk $end
$var wire 32 < rx1_ipv4_ip [31:0] $end
$var wire 24 = rx1_latency [23:0] $end
$var wire 32 > rx1_pps [31:0] $end
$var wire 32 ? rx1_throughput [31:0] $end
$var wire 32 @ rx2_ipv4_ip [31:0] $end
$var wire 24 A rx2_latency [23:0] $end
$var wire 32 B rx2_pps [31:0] $end
$var wire 32 C rx2_throughput [31:0] $end
$var wire 32 D rx3_ipv4_ip [31:0] $end
$var wire 24 E rx3_latency [23:0] $end
$var wire 32 F rx3_pps [31:0] $end
$var wire 32 G rx3_throughput [31:0] $end
$var wire 1 H sys_clk $end
$var wire 1 I sys_rst $end
$var wire 32 J tv_sec [31:0] $end
$var wire 32 K tv_usec [31:0] $end
$var wire 1 L tx0_enable $end
$var wire 16 M tx0_frame_len [15:0] $end
$var wire 1 N tx0_fullroute $end
$var wire 32 O tx0_inter_frame_gap [31:0] $end
$var wire 16 P tx0_ip_len [15:0] $end
$var wire 32 Q tx0_ipv4_dstip [31:0] $end
$var wire 32 R tx0_ipv4_gwip [31:0] $end
$var wire 32 S tx0_ipv4_ip [31:0] $end
$var wire 32 T tx0_ipv4_srcip [31:0] $end
$var wire 1 U tx0_ipv6 $end
$var wire 128 V tx0_ipv6_dstip [127:0] $end
$var wire 128 W tx0_ipv6_srcip [127:0] $end
$var wire 1 X tx0_req_arp $end
$var wire 48 Y tx0_src_mac [47:0] $end
$var wire 16 Z tx0_udp_len [15:0] $end
$var wire 1 [ tx_ipv6 $end
$var wire 8 \ xgmii_0_rxc [7:0] $end
$var wire 64 ] xgmii_0_rxd [63:0] $end
$var wire 8 ^ xgmii_0_txc [7:0] $end
$var wire 64 _ xgmii_0_txd [63:0] $end
$var wire 8 ` xgmii_1_rxc [7:0] $end
$var wire 64 a xgmii_1_rxd [63:0] $end
$var wire 8 b xgmii_1_txc [7:0] $end
$var wire 64 c xgmii_1_txd [63:0] $end
$var reg 1 d crc_init $end
$var reg 1 e crc_rewrite $end
$var reg 24 f full_ipv4 [23:0] $end
$var reg 32 g gap_count [31:0] $end
$var reg 32 h global_counter [31:0] $end
$var reg 24 i ip_sum [23:0] $end
$var reg 17 j ipv4_id [16:0] $end
$var reg 8 k ipv4_ttl [7:0] $end
$var reg 28 l sec_counter [27:0] $end
$var reg 1 m sec_oneshot $end
$var reg 16 n tmp_counter [15:0] $end
$var reg 48 o tx0_dst_mac [47:0] $end
$var reg 32 p tx0_pps [31:0] $end
$var reg 32 q tx0_throughput [31:0] $end
$var reg 32 r tx_counter [31:0] $end
$var reg 3 s tx_state [2:0] $end
$var reg 8 t txc [7:0] $end
$var reg 8 u txc2 [7:0] $end
$var reg 64 v txd [63:0] $end
$var reg 64 w txd2 [63:0] $end
$scope module crc32_d64_inst $end
$var wire 1 H clk $end
$var wire 1 3 crc_en $end
$var wire 32 x crc_out [31:0] $end
$var wire 64 y data_in [63:0] $end
$var wire 1 z rst $end
$var reg 32 { lfsr_c [31:0] $end
$var reg 32 | lfsr_q [31:0] $end
$upscope $end
$scope module crc32_d32_inst $end
$var wire 32 } crc_in [31:0] $end
$var wire 32 ~ crc_out [31:0] $end
$var wire 32 !" data_in [31:0] $end
$var wire 32 "" lfsr_q [31:0] $end
$var reg 32 #" lfsr_c [31:0] $end
$upscope $end
$scope module measure_phy1 $end
$var wire 32 $" global_counter [31:0] $end
$var wire 1 ; pci_clk $end
$var wire 1 %" sec_oneshot $end
$var wire 1 H sys_clk $end
$var wire 1 I sys_rst $end
$var wire 1 [ tx_ipv6 $end
$var wire 8 &" xgmii_rxc [7:0] $end
$var wire 64 '" xgmii_rxd [63:0] $end
$var wire 8 (" xgmii_txc [7:0] $end
$var wire 64 )" xgmii_txd [63:0] $end
$var reg 32 *" counter_end [31:0] $end
$var reg 32 +" counter_start [31:0] $end
$var reg 32 ," pps [31:0] $end
$var reg 16 -" rx_count [15:0] $end
$var reg 16 ." rx_dport [15:0] $end
$var reg 32 /" rx_ipv4_ip [31:0] $end
$var reg 24 0" rx_latency [23:0] $end
$var reg 24 1" rx_latency1 [23:0] $end
$var reg 24 2" rx_latency2 [23:0] $end
$var reg 32 3" rx_magic [31:0] $end
$var reg 32 4" rx_pps [31:0] $end
$var reg 32 5" rx_pps1 [31:0] $end
$var reg 32 6" rx_pps2 [31:0] $end
$var reg 8 7" rx_protocol [7:0] $end
$var reg 48 8" rx_src_mac [47:0] $end
$var reg 32 9" rx_throughput [31:0] $end
$var reg 32 :" rx_throughput1 [31:0] $end
$var reg 32 ;" rx_throughput2 [31:0] $end
$var reg 16 <" rx_type [15:0] $end
$var reg 32 =" throughput [31:0] $end
$var reg 48 >" tx_dst_mac [47:0] $end
$upscope $end
$upscope $end
$scope task waitclock $end
$upscope $end
$upscope $end
$enddefinitions $end
#0
$dumpvars
bx >"
bx ="
bx <"
bx ;"
bx :"
bx 9"
bx 8"
bx 7"
bx 6"
bx 5"
bx 4"
bx 3"
bx 2"
bx 1"
bx 0"
bx /"
bx ."
b0 -"
bx ,"
bx +"
bx *"
b11100000111000001110000011100000111000001110000011100000111 )"
b11111111 ("
bx '"
bx &"
x%"
bx $"
bx #"
bx ""
bx !"
bx ~
bx }
bx |
bx {
0z
bx y
bx x
bx w
bx v
bx u
bx t
bx s
bx r
bx q
bx p
bx o
bx n
xm
bx l
b1000000 k
b0 j
bx i
bx h
bx g
bx f
0e
0d
b11100000111000001110000011100000111000001110000011100000111 c
b11111111 b
bx a
bx `
bx _
bx ^
bx ]
bx \
z[
b11110 Z
b1000100100010001100110100010001100110 Y
0X
bz W
bz V
0U
b11000000101010000000000101100101 T
bz S
b11000000101010000000000100000001 R
b11000000101010000000001001100110 Q
b110010 P
b1 O
0N
b1000100 M
1L
b0xxxxxxxxxxxxxxxx K
b1010011110011100100110000000011 J
1I
0H
bz G
bz F
bz E
bz D
bz C
bz B
bz A
bz @
bx ?
bx >
bx =
bx <
z;
b10111110100110111110100101010101 :
b11000000101010000000001001100110 9
b1001100 8
b1001011 7
b1001010 6
b1001001 5
b1001000 4
13
bx 2
bx 1
bx 0
bx /
bx .
bx -
bx ,
bx +
bx *
1)
0(
bx '
b11100000111000001110000011100000111000001110000011100000111 &
b11111111 %
bx $
bx #
bx "
b0xxxxxxxxxxxx !
$end
#8
bx {
bx #"
b1110000011100000111000001110000011100000111000001110000011100000 y
b11100000111000001110000011100000 !"
b0 ."
b0 7"
b0 >"
b0 8"
b0 <"
b0 :"
b0 5"
b0 ="
b0 ,"
b0 *"
b0 +"
b0 3"
0m
0%"
b1001010100000010111110010000 l
b0 h
b0 $"
b10 s
b111111111111111111111111111111111111111111111111 o
b11111111 t
b11100000111000001110000011100000111000001110000011100000111 v
b0 n
b0 K
b0 r
1(
1H
#16
0(
0H
#24
1(
1H
#25
0)
0I
#32
0(
0H
#40
b10001011101011101001100111000110 0
b0 2
b101110100010100110011010011100 /
b101110100010100110011010011100 ~
b11111111111111111111111111111111 |
b11111111111111111111111111111111 ""
b11111111111111111111111111111111 1
b11111111111111111111111111111111 x
b11111111111111111111111111111111 }
b100111110101010000101001000010 {
b101110100010100110011010011100 #"
03
b1101111110101010101010101010101010101010101010101010101010101011 y
b11011111101010101010101010101010 !"
b1001010100000010111110001111 l
b1 h
b1 $"
1d
1z
b100000101001011110 i
b1 t
b1101010101010101010101010101010101010101010101010101010111111011 v
b1000 r
b11100000111000001110000011100000111000001110000011100000111 w
b11100000111000001110000011100000111000001110000011100000111 $
b11100000111000001110000011100000111000001110000011100000111 _
b11111111 u
b11111111 #
b11111111 ^
1(
1H
#48
0(
0H
#56
b11111111111111111111111111111111 0
b1110111010010001011010001010000 {
b0 /
b0 ~
b0 #"
13
b1111111111111111111111111111111111111111111111110000000010001000 y
b11111111111111111111111111111111 !"
0d
0z
b111111111111010110011111 i
b0 t
b1000100000000111111111111111111111111111111111111111111111111 v
b10000 r
b1101010101010101010101010101010101010101010101010101010111111011 w
b1101010101010101010101010101010101010101010101010101010111111011 $
b1101010101010101010101010101010101010101010101010101010111111011 _
b1 u
b1 #
b1 ^
b10 h
b10 $"
b1001010100000010111110001110 l
1(
1H
#64
0(
0H
#72
b1011011111111101000000001010 0
b10001111011011101001011110101 2
b100010011001100001000100110011000010000000000001010001000000000 y
b1000100110011000010001001100110 !"
b10000100111011000000001011111110 {
b101111000000011111010010101111 /
b101111000000011111010010101111 ~
b101111000000011111010010101111 #"
b1001010100000010111110001101 l
b11 h
b11 $"
b1000101000000000000100001100110010001000011001100100010 v
b11000 r
b1000100000000111111111111111111111111111111111111111111111111 w
b1000100000000111111111111111111111111111111111111111111111111 $
b1000100000000111111111111111111111111111111111111111111111111 _
b0 u
b0 #
b0 ^
b1110111010010001011010001010000 |
b1110111010010001011010001010000 ""
b1110111010010001011010001010000 1
b1110111010010001011010001010000 x
b1110111010010001011010001010000 }
1(
1H
#80
0(
0H
#88
b11100111110101100111100111010001 0
b11011110110010001011111110000000 2
b1001100000000000000000000000000000000000000001010001000 y
b10011000000000000000000 !"
b1010111111110101110111110010001 {
b11000100101000110000101110100 #"
b11000100101000110000101110100 /
b11000100101000110000101110100 ~
b1000101000000000000000000000000000000000000000011001000000000 v
b100000 r
b1000101000000000000100001100110010001000011001100100010 w
b1000101000000000000100001100110010001000011001100100010 $
b1000101000000000000100001100110010001000011001100100010 _
b100 h
b100 $"
b1001010100000010111110001100 l
b10000100111011000000001011111110 |
b10000100111011000000001011111110 ""
b10000100111011000000001011111110 1
b10000100111011000000001011111110 x
b10000100111011000000001011111110 }
1(
1H
#96
0(
0H
#104
b11100100111100100010010111010 0
b10101101000000000100001110110 2
b1010111111111001000000110001010110000000101001100000001100010101 y
b10101111111110010000001100010101 !"
b11101001111110001111000010010110 {
b11000111100001101101110110100010 /
b11000111100001101101110110100010 ~
b11000111100001101101110110100010 #"
b1001010100000010111110001011 l
b101 h
b101 $"
b1010100011000000011001010000000110101000110000001001111111110101 v
b101000 r
b1000101000000000000000000000000000000000000000011001000000000 w
b1000101000000000000000000000000000000000000000011001000000000 $
b1000101000000000000000000000000000000000000000011001000000000 _
b1010111111110101110111110010001 |
b1010111111110101110111110010001 ""
b1010111111110101110111110010001 1
b1010111111110101110111110010001 x
b1010111111110101110111110010001 }
1(
1H
#112
0(
0H
#120
b100001110000000110101111100100 0
b1101000111000001111000010010110 2
b100000001100110000000001001000000000000100100000000000001111000 y
b1000000011001100000000010010000 !"
b10011000001101110101010011000001 {
b1111011111111000010100111011000 #"
b1111011111111000010100111011000 /
b1111011111111000010100111011000 ~
b1111000000000000010010000000000001001000000000110011000000010 v
b110000 r
b1010100011000000011001010000000110101000110000001001111111110101 w
b1010100011000000011001010000000110101000110000001001111111110101 $
b1010100011000000011001010000000110101000110000001001111111110101 _
b110 h
b110 $"
b1001010100000010111110001010 l
b11101001111110001111000010010110 |
b11101001111110001111000010010110 ""
b11101001111110001111000010010110 1
b11101001111110001111000010010110 x
b11101001111110001111000010010110 }
1(
1H
#128
0(
0H
#136
b1100110000110010101011101110100 0
b11100110000100111101010101111100 2
b11111011101100110010111101010100000000000000000 y
b111110111011001 !"
b111001001100011100100100001101 {
b10011001011001110001010111010001 /
b10011001011001110001010111010001 ~
b10011001011001110001010111010001 #"
b1001010100000010111110001001 l
b111 h
b111 $"
b110 n
b110 K
b10101011110100110011011101111100000000000000000 v
b111000 r
b1111000000000000010010000000000001001000000000110011000000010 w
b1111000000000000010010000000000001001000000000110011000000010 $
b1111000000000000010010000000000001001000000000110011000000010 _
b10011000001101110101010011000001 |
b10011000001101110101010011000001 ""
b10011000001101110101010011000001 1
b10011000001101110101010011000001 x
b10011000001101110101010011000001 }
1(
1H
#144
0(
0H
#152
b11000000101101001000110010011000 0
b1100011011100110110110001001111 2
b1100000110010100111001100110010110000000000000000000000 y
b11000001100101001110011 !"
b100011101100001110001100001011 {
b11111100110100101100111011100110 /
b11111100110100101100111011100110 ~
b11111100110100101100111011100110 #"
b110100110011001110010100110000011000000000 v
b1000000 r
b10101011110100110011011101111100000000000000000 w
b10101011110100110011011101111100000000000000000 $
b10101011110100110011011101111100000000000000000 _
b1000 h
b1000 $"
b1001010100000010111110001000 l
b111001001100011100100100001101 |
b111001001100011100100100001101 ""
b111001001100011100100100001101 1
b111001001100011100100100001101 x
b111001001100011100100100001101 }
1(
1H
#160
0(
0H
#168
b10010111110101110110100001000 0
b111011111100100011100000101111 2
b1100000000000000000000010100111101001111010011110100111 y
b11000000000000000000000 !"
b10111110011111110100100000100011 {
b10110111101000000100100011101111 /
b10110111101000000100100011101111 ~
b10110111101000000100100011101111 #"
b1001010100000010111110000111 l
b1001 h
b1001 $"
1e
b1110010111100101111001011110010100000000000000000000011000000000 v
b1001000 r
b110100110011001110010100110000011000000000 w
b110100110011001110010100110000011000000000 $
b110100110011001110010100110000011000000000 _
b100011101100001110001100001011 |
b100011101100001110001100001011 ""
b100011101100001110001100001011 1
b100011101100001110001100001011 x
b100011101100001110001100001011 }
1(
1H
#176
0(
0H
#184
b10000101011101000110101110011101 0
b10000010000000011110110100111011 2
b1011111111100000111000001110000011100000111000001110000011100000 y
b10111111111000001110000011100000 !"
b11010101011010110111001101101000 {
b1011110110100010010100101000110 /
b1011110110100010010100101000110 ~
b1011110110100010010100101000110 #"
b100 s
b0 g
b11111111 t
b11100000111000001110000011100000111000001110000011111111101 v
b0 r
b100011101101111110100001001000000000000000000000011000000000 w
b100011101101111110100001001000000000000000000000011000000000 $
b100011101101111110100001001000000000000000000000011000000000 _
0e
b1010 h
b1010 $"
b1001010100000010111110000110 l
b10111110011111110100100000100011 |
b10111110011111110100100000100011 ""
b10111110011111110100100000100011 1
b10111110011111110100100000100011 x
b10111110011111110100100000100011 }
1(
1H
#192
0(
0H
#200
b10110000010010101000000100000100 0
b1010100001010010011000111101001 2
b1110000011100000111000001110000011100000111000001110000011100000 y
b11100000111000001110000011100000 !"
b100100011001000011000101001011 {
b11110010101011010111111011011111 /
b11110010101011010111111011011111 ~
b11110010101011010111111011011111 #"
b1001010100000010111110000101 l
b1011 h
b1011 $"
b10 s
b11111111111111111111111111111111 g
b11100000111000001110000011100000111000001110000011100000111 v
b11100000111000001110000011100000111000001110000011111111101 w
b11100000111000001110000011100000111000001110000011111111101 $
b11100000111000001110000011100000111000001110000011111111101 _
b11111111 u
b11111111 #
b11111111 ^
b11010101011010110111001101101000 |
b11010101011010110111001101101000 ""
b11010101011010110111001101101000 1
b11010101011010110111001101101000 x
b11010101011010110111001101101000 }
1(
1H
#208
0(
0H
#216
b10001011101011101001100111000110 0
b0 2
03
b1101111110101010101010101010101010101010101010101010101010101011 y
b11011111101010101010101010101010 !"
b100111110101010000101001000010 {
b101110100010100110011010011100 /
b101110100010100110011010011100 ~
b101110100010100110011010011100 #"
1d
1z
b100000101001011110 i
b1 t
b1101010101010101010101010101010101010101010101010101010111111011 v
b1000 r
b11100000111000001110000011100000111000001110000011100000111 w
b11100000111000001110000011100000111000001110000011100000111 $
b11100000111000001110000011100000111000001110000011100000111 _
b1100 h
b1100 $"
b1001010100000010111110000100 l
b11111111111111111111111111111111 |
b11111111111111111111111111111111 ""
b11111111111111111111111111111111 1
b11111111111111111111111111111111 x
b11111111111111111111111111111111 }
1(
1H
#224
0(
0H
#232
b11111111111111111111111111111111 0
b1110111010010001011010001010000 {
b0 /
b0 ~
b0 #"
13
b1111111111111111111111111111111111111111111111110000000010001000 y
b11111111111111111111111111111111 !"
b1001010100000010111110000011 l
b1101 h
b1101 $"
0d
0z
b111111111111010110011111 i
b0 t
b1000100000000111111111111111111111111111111111111111111111111 v
b10000 r
b1101010101010101010101010101010101010101010101010101010111111011 w
b1101010101010101010101010101010101010101010101010101010111111011 $
b1101010101010101010101010101010101010101010101010101010111111011 _
b1 u
b1 #
b1 ^
1(
1H
#240
0(
0H
#248
b1011011111111101000000001010 0
b10001111011011101001011110101 2
b100010011001100001000100110011000010000000000001010001000000000 y
b1000100110011000010001001100110 !"
b10000100111011000000001011111110 {
b101111000000011111010010101111 /
b101111000000011111010010101111 ~
b101111000000011111010010101111 #"
b1000101000000000000100001100110010001000011001100100010 v
b11000 r
b1000100000000111111111111111111111111111111111111111111111111 w
b1000100000000111111111111111111111111111111111111111111111111 $
b1000100000000111111111111111111111111111111111111111111111111 _
b0 u
b0 #
b0 ^
b1110 h
b1110 $"
b1001010100000010111110000010 l
b1110111010010001011010001010000 |
b1110111010010001011010001010000 ""
b1110111010010001011010001010000 1
b1110111010010001011010001010000 x
b1110111010010001011010001010000 }
1(
1H
#256
0(
0H
#264
b11100111110101100111100111010001 0
b11011110110010001011111110000000 2
b1001100000000000000000000000000000000000000001010001000 y
b10011000000000000000000 !"
b1010111111110101110111110010001 {
b11000100101000110000101110100 #"
b11000100101000110000101110100 /
b11000100101000110000101110100 ~
b1001010100000010111110000001 l
b1111 h
b1111 $"
b1000101000000000000000000000000000000000000000011001000000000 v
b100000 r
b1000101000000000000100001100110010001000011001100100010 w
b1000101000000000000100001100110010001000011001100100010 $
b1000101000000000000100001100110010001000011001100100010 _
b10000100111011000000001011111110 |
b10000100111011000000001011111110 ""
b10000100111011000000001011111110 1
b10000100111011000000001011111110 x
b10000100111011000000001011111110 }
1(
1H
#272
0(
0H
#280
b11100100111100100010010111010 0
b10101101000000000100001110110 2
b1010111111111001000000110001010110000000101001100000001100010101 y
b10101111111110010000001100010101 !"
b11101001111110001111000010010110 {
b11000111100001101101110110100010 /
b11000111100001101101110110100010 ~
b11000111100001101101110110100010 #"
b1010100011000000011001010000000110101000110000001001111111110101 v
b101000 r
b1000101000000000000000000000000000000000000000011001000000000 w
b1000101000000000000000000000000000000000000000011001000000000 $
b1000101000000000000000000000000000000000000000011001000000000 _
b10000 h
b10000 $"
b1001010100000010111110000000 l
b1010111111110101110111110010001 |
b1010111111110101110111110010001 ""
b1010111111110101110111110010001 1
b1010111111110101110111110010001 x
b1010111111110101110111110010001 }
1(
1H
#288
0(
0H
#296
b100001110000000110101111100100 0
b1101000111000001111000010010110 2
b100000001100110000000001001000000000000100100000000000001111000 y
b1000000011001100000000010010000 !"
b10011000001101110101010011000001 {
b1111011111111000010100111011000 #"
b1111011111111000010100111011000 /
b1111011111111000010100111011000 ~
b1001010100000010111101111111 l
b10001 h
b10001 $"
b1111000000000000010010000000000001001000000000110011000000010 v
b110000 r
b1010100011000000011001010000000110101000110000001001111111110101 w
b1010100011000000011001010000000110101000110000001001111111110101 $
b1010100011000000011001010000000110101000110000001001111111110101 _
b11101001111110001111000010010110 |
b11101001111110001111000010010110 ""
b11101001111110001111000010010110 1
b11101001111110001111000010010110 x
b11101001111110001111000010010110 }
1(
1H
#304
0(
0H
#312
b1100110000110010101011101110100 0
b11100110000100111101010101111100 2
b11111011101100110010111101010100000000000000000 y
b111110111011001 !"
b111001001100011100100100001101 {
b10011001011001110001010111010001 /
b10011001011001110001010111010001 ~
b10011001011001110001010111010001 #"
b10001 n
b10001 K
b10101011110100110011011101111100000000000000000 v
b111000 r
b1111000000000000010010000000000001001000000000110011000000010 w
b1111000000000000010010000000000001001000000000110011000000010 $
b1111000000000000010010000000000001001000000000110011000000010 _
b10010 h
b10010 $"
b1001010100000010111101111110 l
b10011000001101110101010011000001 |
b10011000001101110101010011000001 ""
b10011000001101110101010011000001 1
b10011000001101110101010011000001 x
b10011000001101110101010011000001 }
1(
1H
#320
0(
0H
#328
b110101000000011110010110000001 0
b1100011011100110110110001001111 2
b10001000110010100111001100110010110000000000000000000000 y
b100010001100101001110011 !"
b100001111101010111110101001110 {
b1010011011111110101100001111110 /
b1010011011111110101100001111110 ~
b1010011011111110101100001111110 #"
b1001010100000010111101111101 l
b10011 h
b10011 $"
b110100110011001110010100110001000100000000 v
b1000000 r
b10101011110100110011011101111100000000000000000 w
b10101011110100110011011101111100000000000000000 $
b10101011110100110011011101111100000000000000000 _
b111001001100011100100100001101 |
b111001001100011100100100001101 ""
b111001001100011100100100001101 1
b111001001100011100100100001101 x
b111001001100011100100100001101 }
1(
1H
#336
0(
0H
#344
b10101111100111100100100110010110 0
b1111011010100000100000110001101 2
b10001000000000000000000010100111101001111010011110100111 y
b100010000000000000000000 !"
b10110001100110001000010011101 {
b1010100001100110110110010110 #"
b1010100001100110110110010110 /
b1010100001100110110110010110 ~
1e
b1110010111100101111001011110010100000000000000000001000100000000 v
b1001000 r
b110100110011001110010100110001000100000000 w
b110100110011001110010100110001000100000000 $
b110100110011001110010100110001000100000000 _
b10100 h
b10100 $"
b1001010100000010111101111100 l
b100001111101010111110101001110 |
b100001111101010111110101001110 ""
b100001111101010111110101001110 1
b100001111101010111110101001110 x
b100001111101010111110101001110 }
1(
1H
#352
0(
0H
#360
b10001100000101011101101001000011 0
b10010111001100111111011101000110 2
b1011111111100000111000001110000011100000111000001110000011100000 y
b10111111111000001110000011100000 !"
b111000000110100110011001111101 {
b11001110010101111010010000111101 /
b11001110010101111010010000111101 ~
b11001110010101111010010000111101 #"
b1001010100000010111101111011 l
b10101 h
b10101 $"
b100 s
b0 g
b11111111 t
b11100000111000001110000011100000111000001110000011111111101 v
b0 r
b1001011001001001100111101010111100000000000000000001000100000000 w
b1001011001001001100111101010111100000000000000000001000100000000 $
b1001011001001001100111101010111100000000000000000001000100000000 _
0e
b10110001100110001000010011101 |
b10110001100110001000010011101 ""
b10110001100110001000010011101 1
b10110001100110001000010011101 x
b10110001100110001000010011101 }
1(
1H
#368
0(
0H
#376
b100010000101110101110011010001 0
b11100011101001111001100101000001 2
b1110000011100000111000001110000011100000111000001110000011100000 y
b11100000111000001110000011100000 !"
b10000111111101000111000111000110 {
b10111011000101111100010101110100 /
b10111011000101111100010101110100 ~
b10111011000101111100010101110100 #"
b10 s
b11111111111111111111111111111111 g
b11100000111000001110000011100000111000001110000011100000111 v
b11100000111000001110000011100000111000001110000011111111101 w
b11100000111000001110000011100000111000001110000011111111101 $
b11100000111000001110000011100000111000001110000011111111101 _
b11111111 u
b11111111 #
b11111111 ^
b10110 h
b10110 $"
b1001010100000010111101111010 l
b111000000110100110011001111101 |
b111000000110100110011001111101 ""
b111000000110100110011001111101 1
b111000000110100110011001111101 x
b111000000110100110011001111101 }
1(
1H
#384
0(
0H
#392
b10001011101011101001100111000110 0
b0 2
03
b1101111110101010101010101010101010101010101010101010101010101011 y
b11011111101010101010101010101010 !"
b100111110101010000101001000010 {
b101110100010100110011010011100 /
b101110100010100110011010011100 ~
b101110100010100110011010011100 #"
b1001010100000010111101111001 l
b10111 h
b10111 $"
1d
1z
b100000101001011110 i
b1 t
b1101010101010101010101010101010101010101010101010101010111111011 v
b1000 r
b11100000111000001110000011100000111000001110000011100000111 w
b11100000111000001110000011100000111000001110000011100000111 $
b11100000111000001110000011100000111000001110000011100000111 _
b11111111111111111111111111111111 |
b11111111111111111111111111111111 ""
b11111111111111111111111111111111 1
b11111111111111111111111111111111 x
b11111111111111111111111111111111 }
1(
1H
#400
0(
0H
#408
b11111111111111111111111111111111 0
b1110111010010001011010001010000 {
b0 /
b0 ~
b0 #"
13
b1111111111111111111111111111111111111111111111110000000010001000 y
b11111111111111111111111111111111 !"
0d
0z
b111111111111010110011111 i
b0 t
b1000100000000111111111111111111111111111111111111111111111111 v
b10000 r
b1101010101010101010101010101010101010101010101010101010111111011 w
b1101010101010101010101010101010101010101010101010101010111111011 $
b1101010101010101010101010101010101010101010101010101010111111011 _
b1 u
b1 #
b1 ^
b11000 h
b11000 $"
b1001010100000010111101111000 l
1(
1H
#416
0(
0H
#424
b1011011111111101000000001010 0
b10001111011011101001011110101 2
b100010011001100001000100110011000010000000000001010001000000000 y
b1000100110011000010001001100110 !"
b10000100111011000000001011111110 {
b101111000000011111010010101111 /
b101111000000011111010010101111 ~
b101111000000011111010010101111 #"
b1001010100000010111101110111 l
b11001 h
b11001 $"
b1000101000000000000100001100110010001000011001100100010 v
b11000 r
b1000100000000111111111111111111111111111111111111111111111111 w
b1000100000000111111111111111111111111111111111111111111111111 $
b1000100000000111111111111111111111111111111111111111111111111 _
b0 u
b0 #
b0 ^
b1110111010010001011010001010000 |
b1110111010010001011010001010000 ""
b1110111010010001011010001010000 1
b1110111010010001011010001010000 x
b1110111010010001011010001010000 }
1(
1H
#432
0(
0H
#440
b11100111110101100111100111010001 0
b11011110110010001011111110000000 2
b1001100000000000000000000000000000000000000001010001000 y
b10011000000000000000000 !"
b1010111111110101110111110010001 {
b11000100101000110000101110100 #"
b11000100101000110000101110100 /
b11000100101000110000101110100 ~
b1000101000000000000000000000000000000000000000011001000000000 v
b100000 r
b1000101000000000000100001100110010001000011001100100010 w
b1000101000000000000100001100110010001000011001100100010 $
b1000101000000000000100001100110010001000011001100100010 _
b11010 h
b11010 $"
b1001010100000010111101110110 l
b10000100111011000000001011111110 |
b10000100111011000000001011111110 ""
b10000100111011000000001011111110 1
b10000100111011000000001011111110 x
b10000100111011000000001011111110 }
1(
1H
#448
0(
0H
#456
b11100100111100100010010111010 0
b10101101000000000100001110110 2
b1010111111111001000000110001010110000000101001100000001100010101 y
b10101111111110010000001100010101 !"
b11101001111110001111000010010110 {
b11000111100001101101110110100010 /
b11000111100001101101110110100010 ~
b11000111100001101101110110100010 #"
b1001010100000010111101110101 l
b11011 h
b11011 $"
b1010100011000000011001010000000110101000110000001001111111110101 v
b101000 r
b1000101000000000000000000000000000000000000000011001000000000 w
b1000101000000000000000000000000000000000000000011001000000000 $
b1000101000000000000000000000000000000000000000011001000000000 _
b1010111111110101110111110010001 |
b1010111111110101110111110010001 ""
b1010111111110101110111110010001 1
b1010111111110101110111110010001 x
b1010111111110101110111110010001 }
1(
1H
#464
0(
0H
#472
b100001110000000110101111100100 0
b1101000111000001111000010010110 2
b100000001100110000000001001000000000000100100000000000001111000 y
b1000000011001100000000010010000 !"
b10011000001101110101010011000001 {
b1111011111111000010100111011000 #"
b1111011111111000010100111011000 /
b1111011111111000010100111011000 ~
b1111000000000000010010000000000001001000000000110011000000010 v
b110000 r
b1010100011000000011001010000000110101000110000001001111111110101 w
b1010100011000000011001010000000110101000110000001001111111110101 $
b1010100011000000011001010000000110101000110000001001111111110101 _
b11100 h
b11100 $"
b1001010100000010111101110100 l
b11101001111110001111000010010110 |
b11101001111110001111000010010110 ""
b11101001111110001111000010010110 1
b11101001111110001111000010010110 x
b11101001111110001111000010010110 }
1(
1H
#480
0(
0H
#488
b1100110000110010101011101110100 0
b11100110000100111101010101111100 2
b11111011101100110010111101010100000000000000000 y
b111110111011001 !"
b111001001100011100100100001101 {
b10011001011001110001010111010001 /
b10011001011001110001010111010001 ~
b10011001011001110001010111010001 #"
b1001010100000010111101110011 l
b11101 h
b11101 $"
b11100 n
b11100 K
b10101011110100110011011101111100000000000000000 v
b111000 r
b1111000000000000010010000000000001001000000000110011000000010 w
b1111000000000000010010000000000001001000000000110011000000010 $
b1111000000000000010010000000000001001000000000110011000000010 _
b10011000001101110101010011000001 |
b10011000001101110101010011000001 ""
b10011000001101110101010011000001 1
b10011000001101110101010011000001 x
b10011000001101110101010011000001 }
1(
1H
#496
0(
0H
#504
b1100110100100100011110110001001 0
b1100011011100110110110001001111 2
b111000110010100111001100110010110000000000000000000000 y
b1110001100101001110011 !"
b100010011100111001011011001000 {
b10011001101101100100001101101110 /
b10011001101101100100001101101110 ~
b10011001101101100100001101101110 #"
b110100110011001110010100110001110000000000 v
b1000000 r
b10101011110100110011011101111100000000000000000 w
b10101011110100110011011101111100000000000000000 $
b10101011110100110011011101111100000000000000000 _
b11110 h
b11110 $"
b1001010100000010111101110010 l
b111001001100011100100100001101 |
b111001001100011100100100001101 ""
b111001001100011100100100001101 1
b111001001100011100100100001101 x
b111001001100011100100100001101 }
1(
1H
#512
0(
0H
#520
b11111011010000000000010101010101 0
b10111011001100011001011011101100 2
b111000000000000000000010100111101001111010011110100111 y
b1110000000000000000000 !"
b100101111110111000101100100100 {
b100000111111010101111101010101 /
b100000111111010101111101010101 ~
b100000111111010101111101010101 #"
b1001010100000010111101110001 l
b11111 h
b11111 $"
1e
b1110010111100101111001011110010100000000000000000001110000000000 v
b1001000 r
b110100110011001110010100110001110000000000 w
b110100110011001110010100110001110000000000 $
b110100110011001110010100110001110000000000 _
b100010011100111001011011001000 |
b100010011100111001011011001000 ""
b100010011100111001011011001000 1
b100010011100111001011011001000 x
b100010011100111001011011001000 }
1(
1H
#528
0(
0H
